…
Табличное представления оценок и доверительные интервалы

```
## # A tibble: 27 × 7
##    term               estimate std.error statistic  p.value   conf.low conf.high
##    <chr>                 <dbl>     <dbl>     <dbl>    <dbl>      <dbl>     <dbl>
##  1 (Intercept)       5.29      0.227        23.3   3.24e-94    4.85e+0  5.74    
##  2 total_PA          0.0000518 0.0000256     2.02  4.38e- 2    1.45e-6  0.000102
##  3 Age               0.0130    0.00247       5.26  1.84e- 7    8.12e-3  0.0178  
##  4 Comorbiditiesyes  0.383     0.0736        5.20  2.50e- 7    2.38e-1  0.527   
##  5 Education2       -0.137     0.164        -0.835 4.04e- 1   -4.60e-1  0.185   
##  6 Education3       -0.316     0.160        -1.98  4.83e- 2   -6.29e-1 -0.00242 
##  7 Education4       -0.304     0.158        -1.92  5.46e- 2   -6.14e-1  0.00597 
##  8 Education5       -0.366     0.167        -2.19  2.88e- 2   -6.95e-1 -0.0380  
##  9 Family_income2   -0.0221    0.117        -0.189 8.50e- 1   -2.51e-1  0.207   
## 10 Family_income3   -0.0282    0.122        -0.231 8.17e- 1   -2.68e-1  0.211   
## # ℹ 17 more rows
```
…
Коэффициенты корреляции Пирсона:


```
##            total_PA        Age
## total_PA  1.0000000 -0.2664293
## Age      -0.2664293  1.0000000
```
*Вывод*: После удаления выбросов и использования натурального логарифма разброс остатков не изменился и расстояния Кука значительно не изменились.

Оценки всех коэффициентов и констант со стандартными ошибками, значения t-критерия и p-value для проверки нулевой гипотезы о равенстве 0 коэффициентов

```
## # A tibble: 27 × 7
##    term                 estimate std.error statistic  p.value conf.low conf.high
##    <chr>                   <dbl>     <dbl>     <dbl>    <dbl>    <dbl>     <dbl>
##  1 (Intercept)            4.97     0.448      11.1   7.48e-27  4.09       5.85  
##  2 log(total_PA + 1000…  -0.121    0.144      -0.843 4.00e- 1 -0.404      0.161 
##  3 Age                    0.0125   0.00211     5.96  3.60e- 9  0.00842    0.0167
##  4 Comorbiditiesyes       0.387    0.0609      6.36  3.31e-10  0.268      0.507 
##  5 Education2            -0.126    0.194      -0.648 5.17e- 1 -0.507      0.255 
##  6 Education3            -0.299    0.189      -1.58  1.14e- 1 -0.669      0.0719
##  7 Education4            -0.293    0.184      -1.59  1.12e- 1 -0.654      0.0683
##  8 Education5            -0.364    0.191      -1.90  5.73e- 2 -0.739      0.0114
##  9 Family_income2        -0.0281   0.124      -0.227 8.21e- 1 -0.271      0.215 
## 10 Family_income3        -0.0337   0.120      -0.280 7.79e- 1 -0.270      0.202 
## # ℹ 17 more rows
```
…
```
## # A tibble: 28 × 7
##    term                 estimate std.error statistic  p.value conf.low conf.high
##    <chr>                   <dbl>     <dbl>     <dbl>    <dbl>    <dbl>     <dbl>
##  1 (Intercept)            3.90     0.459       8.51  7.34e-17  3.00       4.80  
##  2 log(total_PA + 1000…  -0.168    0.140      -1.20  2.29e- 1 -0.442      0.106 
##  3 Age                    0.0139   0.00203     6.82  1.73e-11  0.00987    0.0178
##  4 Comorbiditiesyes       0.327    0.0573      5.71  1.56e- 8  0.214      0.439 
##  5 Education2            -0.106    0.190      -0.560 5.76e- 1 -0.478      0.266 
##  6 Education3            -0.310    0.185      -1.68  9.32e- 2 -0.673      0.0521
##  7 Education4            -0.277    0.180      -1.54  1.23e- 1 -0.630      0.0756
##  8 Education5            -0.332    0.187      -1.77  7.65e- 2 -0.700      0.0354
##  9 Family_income2        -0.0659   0.120      -0.548 5.84e- 1 -0.302      0.170 
## 10 Family_income3        -0.0405   0.116      -0.349 7.27e- 1 -0.268      0.187 
## # ℹ 18 more rows
```
…
