Домашнее задание по регрессионному анализу
…
Табличное представления оценок и доверительные интервалы

## # A tibble: 27 × 7
##    term               estimate std.error statistic  p.value   conf.low conf.high
##    <chr>                 <dbl>     <dbl>     <dbl>    <dbl>      <dbl>     <dbl>
##  1 (Intercept)       5.29      0.227        23.3   3.24e-94    4.85e+0  5.74    
##  2 total_PA          0.0000518 0.0000256     2.02  4.38e- 2    1.45e-6  0.000102
##  3 Age               0.0130    0.00247       5.26  1.84e- 7    8.12e-3  0.0178  
##  4 Comorbiditiesyes  0.383     0.0736        5.20  2.50e- 7    2.38e-1  0.527   
##  5 Education2       -0.137     0.164        -0.835 4.04e- 1   -4.60e-1  0.185   
##  6 Education3       -0.316     0.160        -1.98  4.83e- 2   -6.29e-1 -0.00242 
##  7 Education4       -0.304     0.158        -1.92  5.46e- 2   -6.14e-1  0.00597 
##  8 Education5       -0.366     0.167        -2.19  2.88e- 2   -6.95e-1 -0.0380  
##  9 Family_income2   -0.0221    0.117        -0.189 8.50e- 1   -2.51e-1  0.207   
## 10 Family_income3   -0.0282    0.122        -0.231 8.17e- 1   -2.68e-1  0.211   
## # ℹ 17 more rows
…
